#VRML V2.0 utf8
# META "generator" "CAD Exchanger 3.7.0 (cadexchanger.com)"
DEF __1 Transform {
  children [
    DEF ASSEMBLY Group {
      children [
        DEF __3 Transform {
          translation 0 0 0.0001
          children [
            DEF Body Group {
              children [
                DEF Body_1 Shape {
                  appearance DEF __6 Appearance {
                    material DEF __7 Material {
                      ambientIntensity 0.66666662693
                      diffuseColor 0.300000011921 0.300000011921 0.300000011921
                      shininess 0
                    }
                  }
                  geometry DEF __8 IndexedFaceSet {
                    solid FALSE
                    coord Coordinate {
                      point [
                        -0.001575 0.00175 0,
                        -0.001575 0.00175 0.0012,
                        0.001575 0.00175 0.0012,
                        0.001575 0.00175 0,
                        0.001575 -0.00175 0.0012,
                        0.001575 -0.00175 0,
                        -0.001575 -0.00175 0.0012,
                        -0.001575 -0.00175 0

                      ]
                    }
                    normal Normal {
                      vector [
                        0 1 0,
                        0 1 0,
                        0 1 0,
                        0 1 0,
                        1 0 -0,
                        1 0 -0,
                        1 0 -0,
                        1 0 -0,
                        0 -1 0,
                        0 -1 0,
                        0 -1 0,
                        0 -1 0,
                        -1 0 0,
                        -1 0 0,
                        -1 0 0,
                        -1 0 0,
                        -0 -2.6478952e-34 -1,
                        -0 -2.6478952e-34 -1,
                        -0 -2.6478952e-34 -1,
                        -0 -2.6478952e-34 -1,
                        0 2.6478952e-34 1,
                        0 2.6478952e-34 1,
                        0 2.6478952e-34 1,
                        0 2.6478952e-34 1

                      ]
                    }
                    coordIndex [
                      2 0 1 -1 
                      3 0 2 -1 
                      4 3 2 -1 
                      5 3 4 -1 
                      6 5 4 -1 
                      7 5 6 -1 
                      1 7 6 -1 
                      0 7 1 -1 
                      5 0 3 -1 
                      7 0 5 -1 
                      4 2 1 -1 
                      6 4 1 -1 
                    ]
                    normalIndex [
                      2 0 1 -1 
                      3 0 2 -1 
                      6 4 5 -1 
                      7 4 6 -1 
                      10 8 9 -1 
                      11 8 10 -1 
                      14 12 13 -1 
                      15 12 14 -1 
                      18 16 17 -1 
                      19 16 18 -1 
                      22 21 20 -1 
                      23 22 20 -1 
                    ]
                  }
                }
              ]
            }
          ]
        }
        DEF Pins Group {
          children [
            DEF Pins_1 Shape {
              appearance DEF __11 Appearance {
                material DEF __12 Material {
                  ambientIntensity 0.260947436094
                  diffuseColor 0.73400002718 0.773000001907 0.79699999094
                  shininess 0
                }
              }
              geometry DEF __13 IndexedFaceSet {
                solid FALSE
                coord Coordinate {
                  point [
                    -0.00149 -0.001615 0,
                    -0.00149 -0.001615 0.0001,
                    -0.00149 -0.000435 0,
                    -0.00149 -0.000435 0.0001,
                    -0.00081 -0.001615 0,
                    -0.00081 -0.001615 0.0001,
                    -0.00081 -0.000435 0,
                    -0.00081 -0.000435 0.0001

                  ]
                }
                normal Normal {
                  vector [
                    -1 -0 -0,
                    -1 -0 -0,
                    -1 -0 -0,
                    -1 -0 -0,
                    1 0 0,
                    1 0 0,
                    1 0 0,
                    1 0 0,
                    -0 -1 -0,
                    -0 -1 -0,
                    -0 -1 -0,
                    -0 -1 -0,
                    0 1 0,
                    0 1 0,
                    0 1 0,
                    0 1 0,
                    -0 -0 -1,
                    -0 -0 -1,
                    -0 -0 -1,
                    -0 -0 -1,
                    0 0 1,
                    0 0 1,
                    0 0 1,
                    0 0 1

                  ]
                }
                coordIndex [
                  0 1 2 -1 
                  3 2 1 -1 
                  4 6 5 -1 
                  7 5 6 -1 
                  1 4 5 -1 
                  1 0 4 -1 
                  3 7 6 -1 
                  3 6 2 -1 
                  4 2 6 -1 
                  4 0 2 -1 
                  5 7 3 -1 
                  5 3 1 -1 
                ]
                normalIndex [
                  1 0 2 -1 
                  3 2 0 -1 
                  5 6 4 -1 
                  7 4 6 -1 
                  10 8 11 -1 
                  10 9 8 -1 
                  14 15 12 -1 
                  14 12 13 -1 
                  18 16 19 -1 
                  18 17 16 -1 
                  22 23 20 -1 
                  22 20 21 -1 
                ]
              }
            }
            DEF Pins_2 Shape {
              appearance DEF __15 Appearance {
                material DEF __16 Material {
                  ambientIntensity 0.260947436094
                  diffuseColor 0.73400002718 0.773000001907 0.79699999094
                  shininess 0
                }
              }
              geometry DEF __17 IndexedFaceSet {
                solid FALSE
                coord Coordinate {
                  point [
                    0.00081 -0.001615 0,
                    0.00081 -0.001615 0.0001,
                    0.00081 -0.000435 0,
                    0.00081 -0.000435 0.0001,
                    0.00149 -0.001615 0,
                    0.00149 -0.001615 0.0001,
                    0.00149 -0.000435 0,
                    0.00149 -0.000435 0.0001

                  ]
                }
                normal Normal {
                  vector [
                    -1 -0 -0,
                    -1 -0 -0,
                    -1 -0 -0,
                    -1 -0 -0,
                    1 0 0,
                    1 0 0,
                    1 0 0,
                    1 0 0,
                    -0 -1 -0,
                    -0 -1 -0,
                    -0 -1 -0,
                    -0 -1 -0,
                    0 1 0,
                    0 1 0,
                    0 1 0,
                    0 1 0,
                    -0 -0 -1,
                    -0 -0 -1,
                    -0 -0 -1,
                    -0 -0 -1,
                    0 0 1,
                    0 0 1,
                    0 0 1,
                    0 0 1

                  ]
                }
                coordIndex [
                  0 1 2 -1 
                  3 2 1 -1 
                  4 6 5 -1 
                  7 5 6 -1 
                  1 4 5 -1 
                  1 0 4 -1 
                  3 7 6 -1 
                  3 6 2 -1 
                  4 2 6 -1 
                  4 0 2 -1 
                  5 7 3 -1 
                  5 3 1 -1 
                ]
                normalIndex [
                  1 0 2 -1 
                  3 2 0 -1 
                  5 6 4 -1 
                  7 4 6 -1 
                  10 8 11 -1 
                  10 9 8 -1 
                  14 15 12 -1 
                  14 12 13 -1 
                  18 16 19 -1 
                  18 17 16 -1 
                  22 23 20 -1 
                  22 20 21 -1 
                ]
              }
            }
            DEF Pins_3 Shape {
              appearance DEF __19 Appearance {
                material DEF __20 Material {
                  ambientIntensity 0.260947436094
                  diffuseColor 0.73400002718 0.773000001907 0.79699999094
                  shininess 0
                }
              }
              geometry DEF __21 IndexedFaceSet {
                solid FALSE
                coord Coordinate {
                  point [
                    0.00081 0.000435 0,
                    0.00081 0.000435 0.0001,
                    0.00081 0.001615 0,
                    0.00081 0.001615 0.0001,
                    0.00149 0.000435 0,
                    0.00149 0.000435 0.0001,
                    0.00149 0.001615 0,
                    0.00149 0.001615 0.0001

                  ]
                }
                normal Normal {
                  vector [
                    -1 -0 -0,
                    -1 -0 -0,
                    -1 -0 -0,
                    -1 -0 -0,
                    1 0 0,
                    1 0 0,
                    1 0 0,
                    1 0 0,
                    -0 -1 -0,
                    -0 -1 -0,
                    -0 -1 -0,
                    -0 -1 -0,
                    0 1 0,
                    0 1 0,
                    0 1 0,
                    0 1 0,
                    -0 -0 -1,
                    -0 -0 -1,
                    -0 -0 -1,
                    -0 -0 -1,
                    0 0 1,
                    0 0 1,
                    0 0 1,
                    0 0 1

                  ]
                }
                coordIndex [
                  0 1 2 -1 
                  3 2 1 -1 
                  4 6 5 -1 
                  7 5 6 -1 
                  1 4 5 -1 
                  1 0 4 -1 
                  3 7 6 -1 
                  3 6 2 -1 
                  4 2 6 -1 
                  4 0 2 -1 
                  5 7 3 -1 
                  5 3 1 -1 
                ]
                normalIndex [
                  1 0 2 -1 
                  3 2 0 -1 
                  5 6 4 -1 
                  7 4 6 -1 
                  10 8 11 -1 
                  10 9 8 -1 
                  14 15 12 -1 
                  14 12 13 -1 
                  18 16 19 -1 
                  18 17 16 -1 
                  22 23 20 -1 
                  22 20 21 -1 
                ]
              }
            }
            DEF Pins_4 Shape {
              appearance DEF __23 Appearance {
                material DEF __24 Material {
                  ambientIntensity 0.260947436094
                  diffuseColor 0.73400002718 0.773000001907 0.79699999094
                  shininess 0
                }
              }
              geometry DEF __25 IndexedFaceSet {
                solid FALSE
                coord Coordinate {
                  point [
                    -0.00149 0.000435 0,
                    -0.00149 0.000435 0.0001,
                    -0.00149 0.001615 0,
                    -0.00149 0.001615 0.0001,
                    -0.00081 0.000435 0,
                    -0.00081 0.000435 0.0001,
                    -0.00081 0.001615 0,
                    -0.00081 0.001615 0.0001

                  ]
                }
                normal Normal {
                  vector [
                    -1 -0 -0,
                    -1 -0 -0,
                    -1 -0 -0,
                    -1 -0 -0,
                    1 0 0,
                    1 0 0,
                    1 0 0,
                    1 0 0,
                    -0 -1 -0,
                    -0 -1 -0,
                    -0 -1 -0,
                    -0 -1 -0,
                    0 1 0,
                    0 1 0,
                    0 1 0,
                    0 1 0,
                    -0 -0 -1,
                    -0 -0 -1,
                    -0 -0 -1,
                    -0 -0 -1,
                    0 0 1,
                    0 0 1,
                    0 0 1,
                    0 0 1

                  ]
                }
                coordIndex [
                  0 1 2 -1 
                  3 2 1 -1 
                  4 6 5 -1 
                  7 5 6 -1 
                  1 4 5 -1 
                  1 0 4 -1 
                  3 7 6 -1 
                  3 6 2 -1 
                  4 2 6 -1 
                  4 0 2 -1 
                  5 7 3 -1 
                  5 3 1 -1 
                ]
                normalIndex [
                  1 0 2 -1 
                  3 2 0 -1 
                  5 6 4 -1 
                  7 4 6 -1 
                  10 8 11 -1 
                  10 9 8 -1 
                  14 15 12 -1 
                  14 12 13 -1 
                  18 16 19 -1 
                  18 17 16 -1 
                  22 23 20 -1 
                  22 20 21 -1 
                ]
              }
            }
            DEF Pins_5 Shape {
              appearance DEF __27 Appearance {
                material DEF __28 Material {
                  ambientIntensity 0.260947436094
                  diffuseColor 0.73400002718 0.773000001907 0.79699999094
                  shininess 0
                }
              }
              geometry DEF __29 IndexedFaceSet {
                solid FALSE
                coord Coordinate {
                  point [
                    -0.00036 -0.00161 0,
                    -0.00036 -0.00161 0.0001,
                    -0.00036 0.00161 0,
                    -0.00036 0.00161 0.0001,
                    0.00036 -0.00161 0,
                    0.00036 -0.00161 0.0001,
                    0.00036 0.00161 0,
                    0.00036 0.00161 0.0001

                  ]
                }
                normal Normal {
                  vector [
                    -1 -0 -0,
                    -1 -0 -0,
                    -1 -0 -0,
                    -1 -0 -0,
                    1 0 0,
                    1 0 0,
                    1 0 0,
                    1 0 0,
                    -0 -1 -0,
                    -0 -1 -0,
                    -0 -1 -0,
                    -0 -1 -0,
                    0 1 0,
                    0 1 0,
                    0 1 0,
                    0 1 0,
                    -0 -0 -1,
                    -0 -0 -1,
                    -0 -0 -1,
                    -0 -0 -1,
                    0 0 1,
                    0 0 1,
                    0 0 1,
                    0 0 1

                  ]
                }
                coordIndex [
                  0 1 2 -1 
                  3 2 1 -1 
                  4 6 5 -1 
                  7 5 6 -1 
                  1 4 5 -1 
                  1 0 4 -1 
                  3 7 6 -1 
                  3 6 2 -1 
                  4 2 6 -1 
                  4 0 2 -1 
                  5 7 3 -1 
                  5 3 1 -1 
                ]
                normalIndex [
                  1 0 2 -1 
                  3 2 0 -1 
                  5 6 4 -1 
                  7 4 6 -1 
                  10 8 11 -1 
                  10 9 8 -1 
                  14 15 12 -1 
                  14 12 13 -1 
                  18 16 19 -1 
                  18 17 16 -1 
                  22 23 20 -1 
                  22 20 21 -1 
                ]
              }
            }
          ]
        }
      ]
    }
  ]
}
