#VRML V2.0 utf8
# META "generator" "CAD Exchanger 3.4.1 (cadexchanger.com)"
DEF __1 Transform {
  children [
    DEF ASSEMBLY Group {
      children [
        DEF Body Group {
          children [
            DEF __4 Shape {
              appearance DEF __5 Appearance {
                material DEF __6 Material {
                  ambientIntensity 0.66666662693
                  diffuseColor 0.300000011921 0.300000011921 0.300000011921
                  shininess 0
                }
              }
              geometry DEF __7 IndexedFaceSet {
                solid FALSE
                coord Coordinate {
                  point [
                    -0.0006 -0.0008 2e-06,
                    -0.0006 -0.0008 7.3e-05,
                    -0.0006 0.0008 2e-06,
                    -0.0006 0.0008 7.3e-05,
                    0.0006 -0.0008 2e-06,
                    0.0006 -0.0008 7.3e-05,
                    -0.00055 -0.00075 0.000598,
                    -0.00055 0.00075 0.000598,
                    0.0006 0.0008 2e-06,
                    0.0006 0.0008 7.3e-05,
                    0.00055 -0.00075 0.000598,
                    0.00055 0.00075 0.000598,
                    -0.000325 0.0005 0.000598,
                    -0.000325 0.0005 0.00054,
                    -0.000326139418524 0.000513023613325 0.000598,
                    -0.000329523053441 0.000525651510749 0.000598,
                    -0.000335048094716 0.0005375 0.000598,
                    -0.000342546666766 0.000548209070726 0.000598,
                    -0.000351790929274 0.000557453333234 0.000598,
                    -0.0003625 0.000564951905284 0.000598,
                    -0.000374348489251 0.000570476946559 0.000598,
                    -0.000386976386675 0.000573860581476 0.000598,
                    -0.0004 0.000575 0.000598,
                    -0.000413023613325 0.000573860581476 0.000598,
                    -0.000425651510749 0.000570476946559 0.000598,
                    -0.0004375 0.000564951905284 0.000598,
                    -0.000448209070726 0.000557453333234 0.000598,
                    -0.000457453333234 0.000548209070726 0.000598,
                    -0.000464951905284 0.0005375 0.000598,
                    -0.000470476946559 0.000525651510749 0.000598,
                    -0.000473860581476 0.000513023613325 0.000598,
                    -0.000475 0.0005 0.000598,
                    -0.000473860581476 0.000486976386675 0.000598,
                    -0.000470476946559 0.000474348489251 0.000598,
                    -0.000464951905284 0.0004625 0.000598,
                    -0.000457453333234 0.000451790929274 0.000598,
                    -0.000448209070726 0.000442546666766 0.000598,
                    -0.0004375 0.000435048094716 0.000598,
                    -0.000425651510749 0.000429523053441 0.000598,
                    -0.000413023613325 0.000426139418524 0.000598,
                    -0.0004 0.000425 0.000598,
                    -0.000386976386675 0.000426139418524 0.000598,
                    -0.000374348489251 0.000429523053441 0.000598,
                    -0.0003625 0.000435048094716 0.000598,
                    -0.000351790929274 0.000442546666766 0.000598,
                    -0.000342546666766 0.000451790929274 0.000598,
                    -0.000335048094716 0.0004625 0.000598,
                    -0.000329523053441 0.000474348489251 0.000598,
                    -0.000326139418524 0.000486976386675 0.000598,
                    -0.000326139418524 0.000513023613325 0.00054,
                    -0.000329523053441 0.000525651510749 0.00054,
                    -0.000335048094716 0.0005375 0.00054,
                    -0.000342546666766 0.000548209070726 0.00054,
                    -0.000351790929274 0.000557453333234 0.00054,
                    -0.0003625 0.000564951905284 0.00054,
                    -0.000374348489251 0.000570476946559 0.00054,
                    -0.000386976386675 0.000573860581476 0.00054,
                    -0.0004 0.000575 0.00054,
                    -0.000413023613325 0.000573860581476 0.00054,
                    -0.000425651510749 0.000570476946559 0.00054,
                    -0.0004375 0.000564951905284 0.00054,
                    -0.000448209070726 0.000557453333234 0.00054,
                    -0.000457453333234 0.000548209070726 0.00054,
                    -0.000464951905284 0.0005375 0.00054,
                    -0.000470476946559 0.000525651510749 0.00054,
                    -0.000473860581476 0.000513023613325 0.00054,
                    -0.000475 0.0005 0.00054,
                    -0.000473860581476 0.000486976386675 0.00054,
                    -0.000470476946559 0.000474348489251 0.00054,
                    -0.000464951905284 0.0004625 0.00054,
                    -0.000457453333234 0.000451790929274 0.00054,
                    -0.000448209070726 0.000442546666766 0.00054,
                    -0.0004375 0.000435048094716 0.00054,
                    -0.000425651510749 0.000429523053441 0.00054,
                    -0.000413023613325 0.000426139418524 0.00054,
                    -0.0004 0.000425 0.00054,
                    -0.000386976386675 0.000426139418524 0.00054,
                    -0.000374348489251 0.000429523053441 0.00054,
                    -0.0003625 0.000435048094716 0.00054,
                    -0.000351790929274 0.000442546666766 0.00054,
                    -0.000342546666766 0.000451790929274 0.00054,
                    -0.000335048094716 0.0004625 0.00054,
                    -0.000329523053441 0.000474348489251 0.00054,
                    -0.000326139418524 0.000486976386675 0.00054,
                    -0.000575 5.44009282066e-18 0.0003355,
                    5.44009282066e-18 -0.000775 0.0003355,
                    0 0 0.000598,
                    8.99280649946e-18 0.000775 0.0003355,
                    0.000575 5.66213742559e-18 0.0003355,
                    -0.0004 0.0005 0.00054

                  ]
                }
                normal Normal {
                  vector [
                    -1 -0 0,
                    -1 -0 0,
                    -1 -0 0,
                    -1 -0 0,
                    -0 -1 -0,
                    -0 -1 -0,
                    -0 -1 -0,
                    -0 -1 -0,
                    -0.9954955 -8.6856704e-19 0.094809093,
                    -0.9954955 -8.6856704e-19 0.094809093,
                    -0.9954955 -8.6856704e-19 0.094809093,
                    -0.9954955 -8.6856704e-19 0.094809093,
                    -0.9954955 -8.6856704e-19 0.094809093,
                    -0 -0 -1,
                    -0 -0 -1,
                    -0 -0 -1,
                    -0 -0 -1,
                    0 1 0,
                    0 1 0,
                    0 1 0,
                    0 1 0,
                    1 0 -0,
                    1 0 -0,
                    1 0 -0,
                    1 0 -0,
                    8.6856704e-19 -0.9954955 0.094809093,
                    8.6856704e-19 -0.9954955 0.094809093,
                    8.6856704e-19 -0.9954955 0.094809093,
                    8.6856704e-19 -0.9954955 0.094809093,
                    8.6856704e-19 -0.9954955 0.094809093,
                    0 0 1,
                    0 0 1,
                    0 0 1,
                    0 0 1,
                    0 0 1,
                    0 0 1,
                    0 0 1,
                    0 0 1,
                    0 0 1,
                    0 0 1,
                    0 0 1,
                    0 0 1,
                    0 0 1,
                    0 0 1,
                    0 0 1,
                    0 0 1,
                    0 0 1,
                    0 0 1,
                    0 0 1,
                    0 0 1,
                    0 0 1,
                    0 0 1,
                    0 0 1,
                    0 0 1,
                    0 0 1,
                    0 0 1,
                    0 0 1,
                    0 0 1,
                    0 0 1,
                    0 0 1,
                    0 0 1,
                    0 0 1,
                    0 0 1,
                    0 0 1,
                    0 0 1,
                    0 0 1,
                    0 0 1,
                    0 0 1,
                    0 0 1,
                    0 0 1,
                    0 0 1,
                    8.6856704e-19 0.9954955 0.094809093,
                    8.6856704e-19 0.9954955 0.094809093,
                    8.6856704e-19 0.9954955 0.094809093,
                    8.6856704e-19 0.9954955 0.094809093,
                    8.6856704e-19 0.9954955 0.094809093,
                    0.9954955 -8.6856704e-19 0.094809093,
                    0.9954955 -8.6856704e-19 0.094809093,
                    0.9954955 -8.6856704e-19 0.094809093,
                    0.9954955 -8.6856704e-19 0.094809093,
                    0.9954955 -8.6856704e-19 0.094809093,
                    -1 -0 0,
                    -1 2.4492937e-16 -0,
                    -0.98480773 -0.17364818 0,
                    -0.93969262 -0.34202015 0,
                    -0.86602539 -0.5 0,
                    -0.76604444 -0.64278764 0,
                    -0.64278764 -0.76604444 0,
                    -0.5 -0.86602539 0,
                    -0.34202015 -0.93969262 0,
                    -0.17364818 -0.98480773 0,
                    -6.1232343e-17 -1 0,
                    0.17364818 -0.98480773 -0,
                    0.34202015 -0.93969262 -0,
                    0.5 -0.86602539 -0,
                    0.64278764 -0.76604444 -0,
                    0.76604444 -0.64278764 -0,
                    0.86602539 -0.5 -0,
                    0.93969262 -0.34202015 -0,
                    0.98480773 -0.17364818 -0,
                    1 -1.4547323e-15 -0,
                    0.98480773 0.17364818 -0,
                    0.93969262 0.34202015 -0,
                    0.86602539 0.5 -0,
                    0.76604444 0.64278764 -0,
                    0.64278764 0.76604444 -0,
                    0.5 0.86602539 -0,
                    0.34202015 0.93969262 -0,
                    0.17364818 0.98480773 -0,
                    2.8482324e-15 1 -0,
                    -0.17364818 0.98480773 -0,
                    -0.34202015 0.93969262 -0,
                    -0.5 0.86602539 -0,
                    -0.64278764 0.76604444 -0,
                    -0.76604444 0.64278764 -0,
                    -0.86602539 0.5 -0,
                    -0.93969262 0.34202015 -0,
                    -0.98480773 0.17364818 -0,
                    -1 -0 0,
                    -1 2.4492937e-16 -0,
                    -0.98480773 -0.17364818 0,
                    -0.93969262 -0.34202015 0,
                    -0.86602539 -0.5 0,
                    -0.76604444 -0.64278764 0,
                    -0.64278764 -0.76604444 0,
                    -0.5 -0.86602539 0,
                    -0.34202015 -0.93969262 0,
                    -0.17364818 -0.98480773 0,
                    -6.1232343e-17 -1 0,
                    0.17364818 -0.98480773 -0,
                    0.34202015 -0.93969262 -0,
                    0.5 -0.86602539 -0,
                    0.64278764 -0.76604444 -0,
                    0.76604444 -0.64278764 -0,
                    0.86602539 -0.5 -0,
                    0.93969262 -0.34202015 -0,
                    0.98480773 -0.17364818 -0,
                    1 -1.4547323e-15 -0,
                    0.98480773 0.17364818 -0,
                    0.93969262 0.34202015 -0,
                    0.86602539 0.5 -0,
                    0.76604444 0.64278764 -0,
                    0.64278764 0.76604444 -0,
                    0.5 0.86602539 -0,
                    0.34202015 0.93969262 -0,
                    0.17364818 0.98480773 -0,
                    2.8482324e-15 1 -0,
                    -0.17364818 0.98480773 -0,
                    -0.34202015 0.93969262 -0,
                    -0.5 0.86602539 -0,
                    -0.64278764 0.76604444 -0,
                    -0.76604444 0.64278764 -0,
                    -0.86602539 0.5 -0,
                    -0.93969262 0.34202015 -0,
                    -0.98480773 0.17364818 -0,
                    0 0 1,
                    0 0 1,
                    0 0 1,
                    0 0 1,
                    0 0 1,
                    0 0 1,
                    0 0 1,
                    0 0 1,
                    0 0 1,
                    0 0 1,
                    0 0 1,
                    0 0 1,
                    0 0 1,
                    0 0 1,
                    0 0 1,
                    0 0 1,
                    0 0 1,
                    0 0 1,
                    0 0 1,
                    0 0 1,
                    0 0 1,
                    0 0 1,
                    0 0 1,
                    0 0 1,
                    0 0 1,
                    0 0 1,
                    0 0 1,
                    0 0 1,
                    0 0 1,
                    0 0 1,
                    0 0 1,
                    0 0 1,
                    0 0 1,
                    0 0 1,
                    0 0 1,
                    0 0 1,
                    0 0 1

                  ]
                }
                coordIndex [
                  1 2 0 -1 
                  1 3 2 -1 
                  5 0 4 -1 
                  5 1 0 -1 
                  84 1 6 -1 
                  84 3 1 -1 
                  84 7 3 -1 
                  84 6 7 -1 
                  8 0 2 -1 
                  8 4 0 -1 
                  9 8 2 -1 
                  9 2 3 -1 
                  5 4 8 -1 
                  5 8 9 -1 
                  85 6 1 -1 
                  85 1 5 -1 
                  85 5 10 -1 
                  85 10 6 -1 
                  19 7 20 -1 
                  36 35 6 -1 
                  37 36 6 -1 
                  11 14 12 -1 
                  11 15 14 -1 
                  11 16 15 -1 
                  34 6 35 -1 
                  11 17 16 -1 
                  11 18 17 -1 
                  11 19 18 -1 
                  11 7 19 -1 
                  38 37 6 -1 
                  33 6 34 -1 
                  7 6 32 -1 
                  86 6 10 -1 
                  86 10 11 -1 
                  86 11 12 -1 
                  86 39 38 -1 
                  86 40 39 -1 
                  86 41 40 -1 
                  86 42 41 -1 
                  86 43 42 -1 
                  86 44 43 -1 
                  86 45 44 -1 
                  86 46 45 -1 
                  86 47 46 -1 
                  32 6 33 -1 
                  86 48 47 -1 
                  86 12 48 -1 
                  86 38 6 -1 
                  7 21 20 -1 
                  7 22 21 -1 
                  7 23 22 -1 
                  7 24 23 -1 
                  7 25 24 -1 
                  7 26 25 -1 
                  7 27 26 -1 
                  7 28 27 -1 
                  7 29 28 -1 
                  7 30 29 -1 
                  7 31 30 -1 
                  7 32 31 -1 
                  87 3 7 -1 
                  87 9 3 -1 
                  87 11 9 -1 
                  87 7 11 -1 
                  88 10 5 -1 
                  88 5 9 -1 
                  88 9 11 -1 
                  88 11 10 -1 
                  70 69 34 -1 
                  35 70 34 -1 
                  71 70 35 -1 
                  14 13 12 -1 
                  36 71 35 -1 
                  14 49 13 -1 
                  37 72 71 -1 
                  37 71 36 -1 
                  15 50 49 -1 
                  15 49 14 -1 
                  73 72 37 -1 
                  38 73 37 -1 
                  16 51 50 -1 
                  16 50 15 -1 
                  74 73 38 -1 
                  39 74 38 -1 
                  17 52 51 -1 
                  75 74 39 -1 
                  17 51 16 -1 
                  40 75 39 -1 
                  53 52 17 -1 
                  76 75 40 -1 
                  18 53 17 -1 
                  41 76 40 -1 
                  77 76 41 -1 
                  19 53 18 -1 
                  42 77 41 -1 
                  19 54 53 -1 
                  78 77 42 -1 
                  20 54 19 -1 
                  43 78 42 -1 
                  79 78 43 -1 
                  20 55 54 -1 
                  56 55 20 -1 
                  44 79 43 -1 
                  21 56 20 -1 
                  80 79 44 -1 
                  57 56 21 -1 
                  45 80 44 -1 
                  81 80 45 -1 
                  22 57 21 -1 
                  46 81 45 -1 
                  58 57 22 -1 
                  82 81 46 -1 
                  23 58 22 -1 
                  47 82 46 -1 
                  59 58 23 -1 
                  24 59 23 -1 
                  48 82 47 -1 
                  48 83 82 -1 
                  60 59 24 -1 
                  13 83 48 -1 
                  25 60 24 -1 
                  12 13 48 -1 
                  61 60 25 -1 
                  26 61 25 -1 
                  62 61 26 -1 
                  27 62 26 -1 
                  63 62 27 -1 
                  28 63 27 -1 
                  64 63 28 -1 
                  29 64 28 -1 
                  65 64 29 -1 
                  30 65 29 -1 
                  66 65 30 -1 
                  31 66 30 -1 
                  32 66 31 -1 
                  32 67 66 -1 
                  68 67 32 -1 
                  33 68 32 -1 
                  69 68 33 -1 
                  34 69 33 -1 
                  89 13 49 -1 
                  89 49 50 -1 
                  89 50 51 -1 
                  89 51 52 -1 
                  89 52 53 -1 
                  89 53 54 -1 
                  89 54 55 -1 
                  89 55 56 -1 
                  89 56 57 -1 
                  89 57 58 -1 
                  89 58 59 -1 
                  89 59 60 -1 
                  89 60 61 -1 
                  89 61 62 -1 
                  89 62 63 -1 
                  89 63 64 -1 
                  89 64 65 -1 
                  89 65 66 -1 
                  89 66 67 -1 
                  89 67 68 -1 
                  89 68 69 -1 
                  89 69 70 -1 
                  89 70 71 -1 
                  89 71 72 -1 
                  89 72 73 -1 
                  89 73 74 -1 
                  89 74 75 -1 
                  89 75 76 -1 
                  89 76 77 -1 
                  89 77 78 -1 
                  89 78 79 -1 
                  89 79 80 -1 
                  89 80 81 -1 
                  89 81 82 -1 
                  89 82 83 -1 
                  89 83 13 -1 
                ]
                normalIndex [
                  1 2 0 -1 
                  1 3 2 -1 
                  5 6 4 -1 
                  5 7 6 -1 
                  12 8 9 -1 
                  12 10 8 -1 
                  12 11 10 -1 
                  12 9 11 -1 
                  16 13 14 -1 
                  16 15 13 -1 
                  18 17 19 -1 
                  18 19 20 -1 
                  22 21 23 -1 
                  22 23 24 -1 
                  29 26 25 -1 
                  29 25 27 -1 
                  29 27 28 -1 
                  29 28 26 -1 
                  40 31 41 -1 
                  57 56 30 -1 
                  58 57 30 -1 
                  33 35 34 -1 
                  33 36 35 -1 
                  33 37 36 -1 
                  55 30 56 -1 
                  33 38 37 -1 
                  33 39 38 -1 
                  33 40 39 -1 
                  33 31 40 -1 
                  59 58 30 -1 
                  54 30 55 -1 
                  31 30 53 -1 
                  70 30 32 -1 
                  70 32 33 -1 
                  70 33 34 -1 
                  70 60 59 -1 
                  70 61 60 -1 
                  70 62 61 -1 
                  70 63 62 -1 
                  70 64 63 -1 
                  70 65 64 -1 
                  70 66 65 -1 
                  70 67 66 -1 
                  70 68 67 -1 
                  53 30 54 -1 
                  70 69 68 -1 
                  70 34 69 -1 
                  70 59 30 -1 
                  31 42 41 -1 
                  31 43 42 -1 
                  31 44 43 -1 
                  31 45 44 -1 
                  31 46 45 -1 
                  31 47 46 -1 
                  31 48 47 -1 
                  31 49 48 -1 
                  31 50 49 -1 
                  31 51 50 -1 
                  31 52 51 -1 
                  31 53 52 -1 
                  75 71 72 -1 
                  75 73 71 -1 
                  75 74 73 -1 
                  75 72 74 -1 
                  80 77 76 -1 
                  80 76 78 -1 
                  80 78 79 -1 
                  80 79 77 -1 
                  141 140 103 -1 
                  104 141 103 -1 
                  142 141 104 -1 
                  83 118 81 -1 
                  105 142 104 -1 
                  83 120 118 -1 
                  106 143 142 -1 
                  106 142 105 -1 
                  84 121 120 -1 
                  84 120 83 -1 
                  144 143 106 -1 
                  107 144 106 -1 
                  85 122 121 -1 
                  85 121 84 -1 
                  145 144 107 -1 
                  108 145 107 -1 
                  86 123 122 -1 
                  146 145 108 -1 
                  86 122 85 -1 
                  109 146 108 -1 
                  124 123 86 -1 
                  147 146 109 -1 
                  87 124 86 -1 
                  110 147 109 -1 
                  148 147 110 -1 
                  88 124 87 -1 
                  111 148 110 -1 
                  88 125 124 -1 
                  149 148 111 -1 
                  89 125 88 -1 
                  112 149 111 -1 
                  150 149 112 -1 
                  89 126 125 -1 
                  127 126 89 -1 
                  113 150 112 -1 
                  90 127 89 -1 
                  151 150 113 -1 
                  128 127 90 -1 
                  114 151 113 -1 
                  152 151 114 -1 
                  91 128 90 -1 
                  115 152 114 -1 
                  129 128 91 -1 
                  153 152 115 -1 
                  92 129 91 -1 
                  116 153 115 -1 
                  130 129 92 -1 
                  93 130 92 -1 
                  117 153 116 -1 
                  117 154 153 -1 
                  131 130 93 -1 
                  119 154 117 -1 
                  94 131 93 -1 
                  82 119 117 -1 
                  132 131 94 -1 
                  95 132 94 -1 
                  133 132 95 -1 
                  96 133 95 -1 
                  134 133 96 -1 
                  97 134 96 -1 
                  135 134 97 -1 
                  98 135 97 -1 
                  136 135 98 -1 
                  99 136 98 -1 
                  137 136 99 -1 
                  100 137 99 -1 
                  101 137 100 -1 
                  101 138 137 -1 
                  139 138 101 -1 
                  102 139 101 -1 
                  140 139 102 -1 
                  103 140 102 -1 
                  191 155 156 -1 
                  191 156 157 -1 
                  191 157 158 -1 
                  191 158 159 -1 
                  191 159 160 -1 
                  191 160 161 -1 
                  191 161 162 -1 
                  191 162 163 -1 
                  191 163 164 -1 
                  191 164 165 -1 
                  191 165 166 -1 
                  191 166 167 -1 
                  191 167 168 -1 
                  191 168 169 -1 
                  191 169 170 -1 
                  191 170 171 -1 
                  191 171 172 -1 
                  191 172 173 -1 
                  191 173 174 -1 
                  191 174 175 -1 
                  191 175 176 -1 
                  191 176 177 -1 
                  191 177 178 -1 
                  191 178 179 -1 
                  191 179 180 -1 
                  191 180 181 -1 
                  191 181 182 -1 
                  191 182 183 -1 
                  191 183 184 -1 
                  191 184 185 -1 
                  191 185 186 -1 
                  191 186 187 -1 
                  191 187 188 -1 
                  191 188 189 -1 
                  191 189 190 -1 
                  191 190 155 -1 
                ]
              }
            }
          ]
        }
        DEF PinsArrayL Group {
          children [
            DEF __9 Shape {
              appearance DEF __10 Appearance {
                material DEF __11 Material {
                  ambientIntensity 0.260947436094
                  diffuseColor 0.73400002718 0.773000001907 0.79699999094
                  shininess 0
                }
              }
              geometry DEF __12 IndexedFaceSet {
                solid FALSE
                coord Coordinate {
                  point [
                    -0.0008 0.0003725 0,
                    -0.0008 0.0003725 7.5e-05,
                    -0.0008 0.0006275 0,
                    -0.0008 0.0006275 7.5e-05,
                    -0.0006 0.0003725 0,
                    -0.0006 0.0003725 7.5e-05,
                    -0.0006 0.0006275 0,
                    -0.0006 0.0006275 7.5e-05

                  ]
                }
                normal Normal {
                  vector [
                    -1 -0 0,
                    -1 -0 0,
                    -1 -0 0,
                    -1 -0 0,
                    1 0 -0,
                    1 0 -0,
                    1 0 -0,
                    1 0 -0,
                    -0 -1 -0,
                    -0 -1 -0,
                    -0 -1 -0,
                    -0 -1 -0,
                    0 1 0,
                    0 1 0,
                    0 1 0,
                    0 1 0,
                    -0 -0 -1,
                    -0 -0 -1,
                    -0 -0 -1,
                    -0 -0 -1,
                    0 0 1,
                    0 0 1,
                    0 0 1,
                    0 0 1

                  ]
                }
                coordIndex [
                  1 2 0 -1 
                  1 3 2 -1 
                  5 4 6 -1 
                  5 6 7 -1 
                  5 0 4 -1 
                  5 1 0 -1 
                  7 6 2 -1 
                  7 2 3 -1 
                  6 0 2 -1 
                  6 4 0 -1 
                  7 3 1 -1 
                  7 1 5 -1 
                ]
                normalIndex [
                  1 2 0 -1 
                  1 3 2 -1 
                  5 4 6 -1 
                  5 6 7 -1 
                  11 8 9 -1 
                  11 10 8 -1 
                  15 13 12 -1 
                  15 12 14 -1 
                  19 16 17 -1 
                  19 18 16 -1 
                  23 21 20 -1 
                  23 20 22 -1 
                ]
              }
            }
            DEF __13 Shape {
              appearance DEF __14 Appearance {
                material DEF __15 Material {
                  ambientIntensity 0.260947436094
                  diffuseColor 0.73400002718 0.773000001907 0.79699999094
                  shininess 0
                }
              }
              geometry DEF __16 IndexedFaceSet {
                solid FALSE
                coord Coordinate {
                  point [
                    -0.0008 -0.0001275 0,
                    -0.0008 -0.0001275 7.5e-05,
                    -0.0008 0.0001275 0,
                    -0.0008 0.0001275 7.5e-05,
                    -0.0006 -0.0001275 0,
                    -0.0006 -0.0001275 7.5e-05,
                    -0.0006 0.0001275 0,
                    -0.0006 0.0001275 7.5e-05

                  ]
                }
                normal Normal {
                  vector [
                    -1 -0 0,
                    -1 -0 0,
                    -1 -0 0,
                    -1 -0 0,
                    1 0 -0,
                    1 0 -0,
                    1 0 -0,
                    1 0 -0,
                    -0 -1 -0,
                    -0 -1 -0,
                    -0 -1 -0,
                    -0 -1 -0,
                    0 1 0,
                    0 1 0,
                    0 1 0,
                    0 1 0,
                    -0 -0 -1,
                    -0 -0 -1,
                    -0 -0 -1,
                    -0 -0 -1,
                    0 0 1,
                    0 0 1,
                    0 0 1,
                    0 0 1

                  ]
                }
                coordIndex [
                  1 2 0 -1 
                  1 3 2 -1 
                  5 4 6 -1 
                  5 6 7 -1 
                  5 0 4 -1 
                  5 1 0 -1 
                  7 6 2 -1 
                  7 2 3 -1 
                  6 0 2 -1 
                  6 4 0 -1 
                  7 3 1 -1 
                  7 1 5 -1 
                ]
                normalIndex [
                  1 2 0 -1 
                  1 3 2 -1 
                  5 4 6 -1 
                  5 6 7 -1 
                  11 8 9 -1 
                  11 10 8 -1 
                  15 13 12 -1 
                  15 12 14 -1 
                  19 16 17 -1 
                  19 18 16 -1 
                  23 21 20 -1 
                  23 20 22 -1 
                ]
              }
            }
            DEF __17 Shape {
              appearance DEF __18 Appearance {
                material DEF __19 Material {
                  ambientIntensity 0.260947436094
                  diffuseColor 0.73400002718 0.773000001907 0.79699999094
                  shininess 0
                }
              }
              geometry DEF __20 IndexedFaceSet {
                solid FALSE
                coord Coordinate {
                  point [
                    -0.0008 -0.0006275 0,
                    -0.0008 -0.0006275 7.5e-05,
                    -0.0008 -0.0003725 0,
                    -0.0008 -0.0003725 7.5e-05,
                    -0.0006 -0.0006275 0,
                    -0.0006 -0.0006275 7.5e-05,
                    -0.0006 -0.0003725 0,
                    -0.0006 -0.0003725 7.5e-05

                  ]
                }
                normal Normal {
                  vector [
                    -1 -0 0,
                    -1 -0 0,
                    -1 -0 0,
                    -1 -0 0,
                    1 0 -0,
                    1 0 -0,
                    1 0 -0,
                    1 0 -0,
                    -0 -1 -0,
                    -0 -1 -0,
                    -0 -1 -0,
                    -0 -1 -0,
                    0 1 0,
                    0 1 0,
                    0 1 0,
                    0 1 0,
                    -0 -0 -1,
                    -0 -0 -1,
                    -0 -0 -1,
                    -0 -0 -1,
                    0 0 1,
                    0 0 1,
                    0 0 1,
                    0 0 1

                  ]
                }
                coordIndex [
                  1 2 0 -1 
                  1 3 2 -1 
                  5 4 6 -1 
                  5 6 7 -1 
                  5 0 4 -1 
                  5 1 0 -1 
                  7 6 2 -1 
                  7 2 3 -1 
                  6 0 2 -1 
                  6 4 0 -1 
                  7 3 1 -1 
                  7 1 5 -1 
                ]
                normalIndex [
                  1 2 0 -1 
                  1 3 2 -1 
                  5 4 6 -1 
                  5 6 7 -1 
                  11 8 9 -1 
                  11 10 8 -1 
                  15 13 12 -1 
                  15 12 14 -1 
                  19 16 17 -1 
                  19 18 16 -1 
                  23 21 20 -1 
                  23 20 22 -1 
                ]
              }
            }
          ]
        }
        DEF PinsArrayR Group {
          children [
            DEF __22 Shape {
              appearance DEF __23 Appearance {
                material DEF __24 Material {
                  ambientIntensity 0.260947436094
                  diffuseColor 0.73400002718 0.773000001907 0.79699999094
                  shininess 0
                }
              }
              geometry DEF __25 IndexedFaceSet {
                solid FALSE
                coord Coordinate {
                  point [
                    0.0006 0.0003725 0,
                    0.0006 0.0003725 7.5e-05,
                    0.0006 0.0006275 0,
                    0.0006 0.0006275 7.5e-05,
                    0.0008 0.0003725 0,
                    0.0008 0.0003725 7.5e-05,
                    0.0008 0.0006275 0,
                    0.0008 0.0006275 7.5e-05

                  ]
                }
                normal Normal {
                  vector [
                    -1 -0 0,
                    -1 -0 0,
                    -1 -0 0,
                    -1 -0 0,
                    1 0 -0,
                    1 0 -0,
                    1 0 -0,
                    1 0 -0,
                    -0 -1 -0,
                    -0 -1 -0,
                    -0 -1 -0,
                    -0 -1 -0,
                    0 1 0,
                    0 1 0,
                    0 1 0,
                    0 1 0,
                    -0 -0 -1,
                    -0 -0 -1,
                    -0 -0 -1,
                    -0 -0 -1,
                    0 0 1,
                    0 0 1,
                    0 0 1,
                    0 0 1

                  ]
                }
                coordIndex [
                  1 2 0 -1 
                  1 3 2 -1 
                  5 4 6 -1 
                  5 6 7 -1 
                  5 0 4 -1 
                  5 1 0 -1 
                  7 6 2 -1 
                  7 2 3 -1 
                  6 0 2 -1 
                  6 4 0 -1 
                  7 3 1 -1 
                  7 1 5 -1 
                ]
                normalIndex [
                  1 2 0 -1 
                  1 3 2 -1 
                  5 4 6 -1 
                  5 6 7 -1 
                  11 8 9 -1 
                  11 10 8 -1 
                  15 13 12 -1 
                  15 12 14 -1 
                  19 16 17 -1 
                  19 18 16 -1 
                  23 21 20 -1 
                  23 20 22 -1 
                ]
              }
            }
            DEF __26 Shape {
              appearance DEF __27 Appearance {
                material DEF __28 Material {
                  ambientIntensity 0.260947436094
                  diffuseColor 0.73400002718 0.773000001907 0.79699999094
                  shininess 0
                }
              }
              geometry DEF __29 IndexedFaceSet {
                solid FALSE
                coord Coordinate {
                  point [
                    0.0006 -0.0001275 0,
                    0.0006 -0.0001275 7.5e-05,
                    0.0006 0.0001275 0,
                    0.0006 0.0001275 7.5e-05,
                    0.0008 -0.0001275 0,
                    0.0008 -0.0001275 7.5e-05,
                    0.0008 0.0001275 0,
                    0.0008 0.0001275 7.5e-05

                  ]
                }
                normal Normal {
                  vector [
                    -1 -0 0,
                    -1 -0 0,
                    -1 -0 0,
                    -1 -0 0,
                    1 0 -0,
                    1 0 -0,
                    1 0 -0,
                    1 0 -0,
                    -0 -1 -0,
                    -0 -1 -0,
                    -0 -1 -0,
                    -0 -1 -0,
                    0 1 0,
                    0 1 0,
                    0 1 0,
                    0 1 0,
                    -0 -0 -1,
                    -0 -0 -1,
                    -0 -0 -1,
                    -0 -0 -1,
                    0 0 1,
                    0 0 1,
                    0 0 1,
                    0 0 1

                  ]
                }
                coordIndex [
                  1 2 0 -1 
                  1 3 2 -1 
                  5 4 6 -1 
                  5 6 7 -1 
                  5 0 4 -1 
                  5 1 0 -1 
                  7 6 2 -1 
                  7 2 3 -1 
                  6 0 2 -1 
                  6 4 0 -1 
                  7 3 1 -1 
                  7 1 5 -1 
                ]
                normalIndex [
                  1 2 0 -1 
                  1 3 2 -1 
                  5 4 6 -1 
                  5 6 7 -1 
                  11 8 9 -1 
                  11 10 8 -1 
                  15 13 12 -1 
                  15 12 14 -1 
                  19 16 17 -1 
                  19 18 16 -1 
                  23 21 20 -1 
                  23 20 22 -1 
                ]
              }
            }
            DEF __30 Shape {
              appearance DEF __31 Appearance {
                material DEF __32 Material {
                  ambientIntensity 0.260947436094
                  diffuseColor 0.73400002718 0.773000001907 0.79699999094
                  shininess 0
                }
              }
              geometry DEF __33 IndexedFaceSet {
                solid FALSE
                coord Coordinate {
                  point [
                    0.0006 -0.0006275 0,
                    0.0006 -0.0006275 7.5e-05,
                    0.0006 -0.0003725 0,
                    0.0006 -0.0003725 7.5e-05,
                    0.0008 -0.0006275 0,
                    0.0008 -0.0006275 7.5e-05,
                    0.0008 -0.0003725 0,
                    0.0008 -0.0003725 7.5e-05

                  ]
                }
                normal Normal {
                  vector [
                    -1 -0 0,
                    -1 -0 0,
                    -1 -0 0,
                    -1 -0 0,
                    1 0 -0,
                    1 0 -0,
                    1 0 -0,
                    1 0 -0,
                    -0 -1 -0,
                    -0 -1 -0,
                    -0 -1 -0,
                    -0 -1 -0,
                    0 1 0,
                    0 1 0,
                    0 1 0,
                    0 1 0,
                    -0 -0 -1,
                    -0 -0 -1,
                    -0 -0 -1,
                    -0 -0 -1,
                    0 0 1,
                    0 0 1,
                    0 0 1,
                    0 0 1

                  ]
                }
                coordIndex [
                  1 2 0 -1 
                  1 3 2 -1 
                  5 4 6 -1 
                  5 6 7 -1 
                  5 0 4 -1 
                  5 1 0 -1 
                  7 6 2 -1 
                  7 2 3 -1 
                  6 0 2 -1 
                  6 4 0 -1 
                  7 3 1 -1 
                  7 1 5 -1 
                ]
                normalIndex [
                  1 2 0 -1 
                  1 3 2 -1 
                  5 4 6 -1 
                  5 6 7 -1 
                  11 8 9 -1 
                  11 10 8 -1 
                  15 13 12 -1 
                  15 12 14 -1 
                  19 16 17 -1 
                  19 18 16 -1 
                  23 21 20 -1 
                  23 20 22 -1 
                ]
              }
            }
          ]
        }
      ]
    }
  ]
}
