(module 2035560407 (layer F.Cu) (tedit 0)
  (descr 203556-0407-1)
  (tags Connector)
  (attr smd)
  (fp_text reference J** (at 0 0.725) (layer F.SilkS)
    (effects (font (size 1.27 1.27) (thickness 0.254)))
  )
  (fp_text value 2035560407 (at 0 0.725) (layer F.SilkS) hide
    (effects (font (size 1.27 1.27) (thickness 0.254)))
  )
  (fp_arc (start 1.5 -1.5) (end 1.6 -1.5) (angle 180) (layer F.SilkS) (width 0.2))
  (fp_arc (start 1.5 -1.5) (end 1.4 -1.5) (angle 180) (layer F.SilkS) (width 0.2))
  (fp_text user %R (at 0 0.725) (layer F.Fab)
    (effects (font (size 1.27 1.27) (thickness 0.254)))
  )
  (fp_line (start -3 0) (end 3 0) (layer F.Fab) (width 0.2))
  (fp_line (start 3 0) (end 3 3) (layer F.Fab) (width 0.2))
  (fp_line (start 3 3) (end -3 3) (layer F.Fab) (width 0.2))
  (fp_line (start -3 3) (end -3 0) (layer F.Fab) (width 0.2))
  (fp_line (start -4.4 -2.6) (end 4.4 -2.6) (layer F.CrtYd) (width 0.1))
  (fp_line (start 4.4 -2.6) (end 4.4 4.05) (layer F.CrtYd) (width 0.1))
  (fp_line (start 4.4 4.05) (end -4.4 4.05) (layer F.CrtYd) (width 0.1))
  (fp_line (start -4.4 4.05) (end -4.4 -2.6) (layer F.CrtYd) (width 0.1))
  (fp_line (start -2 0) (end -3 0) (layer F.SilkS) (width 0.1))
  (fp_line (start -3 0) (end -3 1) (layer F.SilkS) (width 0.1))
  (fp_line (start 2 0) (end 3 0) (layer F.SilkS) (width 0.1))
  (fp_line (start 3 0) (end 3 1) (layer F.SilkS) (width 0.1))
  (fp_line (start -2 3) (end 2 3) (layer F.SilkS) (width 0.1))
  (fp_line (start 1.4 -1.5) (end 1.4 -1.5) (layer F.SilkS) (width 0.2))
  (fp_line (start 1.6 -1.5) (end 1.6 -1.5) (layer F.SilkS) (width 0.2))
  (pad 6 smd rect (at -2.8 2.15) (size 1.2 1.8) (layers F.Cu F.Paste F.Mask))
  (pad 5 smd rect (at 2.8 2.15) (size 1.2 1.8) (layers F.Cu F.Paste F.Mask))
  (pad 4 smd rect (at -1.5 -0.375) (size 0.6 1.55) (layers F.Cu F.Paste F.Mask))
  (pad 3 smd rect (at -0.5 -0.375) (size 0.6 1.55) (layers F.Cu F.Paste F.Mask))
  (pad 2 smd rect (at 0.5 -0.375) (size 0.6 1.55) (layers F.Cu F.Paste F.Mask))
  (pad 1 smd rect (at 1.5 -0.375) (size 0.6 1.55) (layers F.Cu F.Paste F.Mask))
  (model 203556-0407.stp
    (at (xyz 0 0 0))
    (scale (xyz 1 1 1))
    (rotate (xyz 0 0 0))
  )
)
