(module SOIC127P600X175-8N (layer F.Cu) (tedit 5D93DD0D)
  (descr "D0008A SOIC - 1.75 mm max height_i")
  (tags "Integrated Circuit")
  (attr smd)
  (fp_text reference IC** (at 0 0) (layer F.SilkS)
    (effects (font (size 1.27 1.27) (thickness 0.254)))
  )
  (fp_text value SOIC127P600X175-8N (at 0 0) (layer F.SilkS) hide
    (effects (font (size 1.27 1.27) (thickness 0.254)))
  )
  (fp_line (start -3.475 -2.58) (end -1.948 -2.58) (layer F.SilkS) (width 0.2))
  (fp_line (start -1.598 2.452) (end -1.598 -2.452) (layer F.SilkS) (width 0.2))
  (fp_line (start 1.598 2.452) (end -1.598 2.452) (layer F.SilkS) (width 0.2))
  (fp_line (start 1.598 -2.452) (end 1.598 2.452) (layer F.SilkS) (width 0.2))
  (fp_line (start -1.598 -2.452) (end 1.598 -2.452) (layer F.SilkS) (width 0.2))
  (fp_line (start -1.948 -1.182) (end -0.678 -2.452) (layer F.Fab) (width 0.1))
  (fp_line (start -1.948 2.452) (end -1.948 -2.452) (layer F.Fab) (width 0.1))
  (fp_line (start 1.948 2.452) (end -1.948 2.452) (layer F.Fab) (width 0.1))
  (fp_line (start 1.948 -2.452) (end 1.948 2.452) (layer F.Fab) (width 0.1))
  (fp_line (start -1.948 -2.452) (end 1.948 -2.452) (layer F.Fab) (width 0.1))
  (fp_line (start -3.725 2.75) (end -3.725 -2.75) (layer F.CrtYd) (width 0.05))
  (fp_line (start 3.725 2.75) (end -3.725 2.75) (layer F.CrtYd) (width 0.05))
  (fp_line (start 3.725 -2.75) (end 3.725 2.75) (layer F.CrtYd) (width 0.05))
  (fp_line (start -3.725 -2.75) (end 3.725 -2.75) (layer F.CrtYd) (width 0.05))
  (fp_text user %R (at 0 0) (layer F.Fab)
    (effects (font (size 1.27 1.27) (thickness 0.254)))
  )
  (pad 8 smd rect (at 2.711 -1.905 90) (size 0.65 1.528) (layers F.Cu F.Paste F.Mask))
  (pad 7 smd rect (at 2.711 -0.635 90) (size 0.65 1.528) (layers F.Cu F.Paste F.Mask))
  (pad 6 smd rect (at 2.711 0.635 90) (size 0.65 1.528) (layers F.Cu F.Paste F.Mask))
  (pad 5 smd rect (at 2.711 1.905 90) (size 0.65 1.528) (layers F.Cu F.Paste F.Mask))
  (pad 4 smd rect (at -2.711 1.905 90) (size 0.65 1.528) (layers F.Cu F.Paste F.Mask))
  (pad 3 smd rect (at -2.711 0.635 90) (size 0.65 1.528) (layers F.Cu F.Paste F.Mask))
  (pad 2 smd rect (at -2.711 -0.635 90) (size 0.65 1.528) (layers F.Cu F.Paste F.Mask))
  (pad 1 smd rect (at -2.711 -1.905 90) (size 0.65 1.528) (layers F.Cu F.Paste F.Mask))
  (model ${KIPRJMOD}/lib/3Dmodels/SN65HVD233D.stp
    (at (xyz 0 0 0))
    (scale (xyz 1 1 1))
    (rotate (xyz 0 0 0))
  )
)
