(module SOTFL50P160X60-6N (layer F.Cu) (tedit 5D99025B)
  (descr SOT-666)
  (tags "Integrated Circuit")
  (attr smd)
  (fp_text reference IC** (at 0 0) (layer F.SilkS)
    (effects (font (size 1.27 1.27) (thickness 0.254)))
  )
  (fp_text value SOTFL50P160X60-6N (at 0 0) (layer F.SilkS) hide
    (effects (font (size 1.27 1.27) (thickness 0.254)))
  )
  (fp_line (start -1.075 -0.9) (end -0.6 -0.9) (layer F.SilkS) (width 0.2))
  (fp_line (start -0.25 0.8) (end -0.25 -0.8) (layer F.SilkS) (width 0.2))
  (fp_line (start 0.25 0.8) (end -0.25 0.8) (layer F.SilkS) (width 0.2))
  (fp_line (start 0.25 -0.8) (end 0.25 0.8) (layer F.SilkS) (width 0.2))
  (fp_line (start -0.25 -0.8) (end 0.25 -0.8) (layer F.SilkS) (width 0.2))
  (fp_line (start -0.6 -0.3) (end -0.1 -0.8) (layer F.Fab) (width 0.1))
  (fp_line (start -0.6 0.8) (end -0.6 -0.8) (layer F.Fab) (width 0.1))
  (fp_line (start 0.6 0.8) (end -0.6 0.8) (layer F.Fab) (width 0.1))
  (fp_line (start 0.6 -0.8) (end 0.6 0.8) (layer F.Fab) (width 0.1))
  (fp_line (start -0.6 -0.8) (end 0.6 -0.8) (layer F.Fab) (width 0.1))
  (fp_line (start -1.225 1) (end -1.225 -1) (layer F.CrtYd) (width 0.05))
  (fp_line (start 1.225 1) (end -1.225 1) (layer F.CrtYd) (width 0.05))
  (fp_line (start 1.225 -1) (end 1.225 1) (layer F.CrtYd) (width 0.05))
  (fp_line (start -1.225 -1) (end 1.225 -1) (layer F.CrtYd) (width 0.05))
  (fp_text user %R (at 0 0) (layer F.Fab)
    (effects (font (size 1.27 1.27) (thickness 0.254)))
  )
  (pad 6 smd rect (at 0.838 -0.5 90) (size 0.3 0.475) (layers F.Cu F.Paste F.Mask))
  (pad 5 smd rect (at 0.838 0 90) (size 0.3 0.475) (layers F.Cu F.Paste F.Mask))
  (pad 4 smd rect (at 0.838 0.5 90) (size 0.3 0.475) (layers F.Cu F.Paste F.Mask))
  (pad 3 smd rect (at -0.838 0.5 90) (size 0.3 0.475) (layers F.Cu F.Paste F.Mask))
  (pad 2 smd rect (at -0.838 0 90) (size 0.3 0.475) (layers F.Cu F.Paste F.Mask))
  (pad 1 smd rect (at -0.838 -0.5 90) (size 0.3 0.475) (layers F.Cu F.Paste F.Mask))
  (model USBLC6-2P6.stp
    (at (xyz 0 0 0))
    (scale (xyz 1 1 1))
    (rotate (xyz 0 0 0))
  )
  (model ${KIPRJMOD}/lib/3Dmodels/USBLC6-2P6.stp
    (at (xyz 0 0 0))
    (scale (xyz 1 1 1))
    (rotate (xyz 0 0 0))
  )
)
